^C:\USERS\ALIM\SOURCE\REPOS\LAB2\LAB2\LAB1.CPP|C:\USERS\ALIM\SOURCE\REPOS\LAB2\LAB2\NODE.CPP|C:\USERS\ALIM\SOURCE\REPOS\LAB2\LAB2\STACK.CPP|C:\USERS\ALIM\SOURCE\REPOS\LAB2\LAB2\STUDENT.CPP
C:\USERS\ALIM\SOURCE\REPOS\LAB2\LAB2\DEBUG\VC142.PDB
C:\USERS\ALIM\SOURCE\REPOS\LAB2\LAB2\DEBUG\VC142.IDB
C:\USERS\ALIM\SOURCE\REPOS\LAB2\LAB2\DEBUG\STUDENT.OBJ
C:\USERS\ALIM\SOURCE\REPOS\LAB2\LAB2\DEBUG\STACK.OBJ
C:\USERS\ALIM\SOURCE\REPOS\LAB2\LAB2\DEBUG\NODE.OBJ
C:\USERS\ALIM\SOURCE\REPOS\LAB2\LAB2\DEBUG\LAB1.OBJ
^C:\USERS\ALIM\SOURCE\REPOS\LAB2\LAB2\LAB1.CPP
C:\USERS\ALIM\SOURCE\REPOS\LAB2\LAB2\DEBUG\VC142.PDB
^C:\USERS\ALIM\SOURCE\REPOS\LAB2\LAB2\NODE.CPP
C:\USERS\ALIM\SOURCE\REPOS\LAB2\LAB2\DEBUG\VC142.PDB
^C:\USERS\ALIM\SOURCE\REPOS\LAB2\LAB2\STACK.CPP
C:\USERS\ALIM\SOURCE\REPOS\LAB2\LAB2\DEBUG\VC142.PDB
^C:\USERS\ALIM\SOURCE\REPOS\LAB2\LAB2\STUDENT.CPP
C:\USERS\ALIM\SOURCE\REPOS\LAB2\LAB2\DEBUG\VC142.PDB
^C:\USERS\ALIM\SOURCE\REPOS\LAB1\LAB2\LAB1.CPP|C:\USERS\ALIM\SOURCE\REPOS\LAB1\LAB2\NODE.CPP|C:\USERS\ALIM\SOURCE\REPOS\LAB1\LAB2\STACK.CPP|C:\USERS\ALIM\SOURCE\REPOS\LAB1\LAB2\STUDENT.CPP
C:\USERS\ALIM\SOURCE\REPOS\LAB1\LAB2\DEBUG\VC142.PDB
C:\USERS\ALIM\SOURCE\REPOS\LAB1\LAB2\DEBUG\VC142.IDB
C:\USERS\ALIM\SOURCE\REPOS\LAB1\LAB2\DEBUG\STUDENT.OBJ
C:\USERS\ALIM\SOURCE\REPOS\LAB1\LAB2\DEBUG\STACK.OBJ
C:\USERS\ALIM\SOURCE\REPOS\LAB1\LAB2\DEBUG\NODE.OBJ
C:\USERS\ALIM\SOURCE\REPOS\LAB1\LAB2\DEBUG\LAB1.OBJ
^C:\USERS\ALIM\SOURCE\REPOS\LAB1\LAB2\LAB1.CPP
C:\USERS\ALIM\SOURCE\REPOS\LAB1\LAB2\DEBUG\VC142.PDB
^C:\USERS\ALIM\SOURCE\REPOS\LAB1\LAB2\NODE.CPP
C:\USERS\ALIM\SOURCE\REPOS\LAB1\LAB2\DEBUG\VC142.PDB
^C:\USERS\ALIM\SOURCE\REPOS\LAB1\LAB2\STACK.CPP
C:\USERS\ALIM\SOURCE\REPOS\LAB1\LAB2\DEBUG\VC142.PDB
^C:\USERS\ALIM\SOURCE\REPOS\LAB1\LAB2\STUDENT.CPP
C:\USERS\ALIM\SOURCE\REPOS\LAB1\LAB2\DEBUG\VC142.PDB
