^C:\USERS\ALIM\SOURCE\REPOS\LAB2\LAB2\DEBUG\LAB1.OBJ|C:\USERS\ALIM\SOURCE\REPOS\LAB2\LAB2\DEBUG\NODE.OBJ|C:\USERS\ALIM\SOURCE\REPOS\LAB2\LAB2\DEBUG\STACK.OBJ|C:\USERS\ALIM\SOURCE\REPOS\LAB2\LAB2\DEBUG\STUDENT.OBJ
C:\USERS\ALIM\SOURCE\REPOS\LAB2\LAB2\DEBUG\LAB1.ILK
C:\USERS\ALIM\SOURCE\REPOS\LAB2\DEBUG\LAB1.EXE
C:\USERS\ALIM\SOURCE\REPOS\LAB2\DEBUG\LAB1.PDB
^C:\USERS\ALIM\SOURCE\REPOS\LAB1\LAB2\DEBUG\LAB1.OBJ|C:\USERS\ALIM\SOURCE\REPOS\LAB1\LAB2\DEBUG\NODE.OBJ|C:\USERS\ALIM\SOURCE\REPOS\LAB1\LAB2\DEBUG\STACK.OBJ|C:\USERS\ALIM\SOURCE\REPOS\LAB1\LAB2\DEBUG\STUDENT.OBJ
C:\USERS\ALIM\SOURCE\REPOS\LAB1\DEBUG\LAB1.EXE
C:\USERS\ALIM\SOURCE\REPOS\LAB1\LAB2\DEBUG\LAB1.ILK
C:\USERS\ALIM\SOURCE\REPOS\LAB1\DEBUG\LAB1.PDB
