^C:\USERS\ALIM\DESKTOP\УНИВЕР\2 КУРС\ООП\CODE\LAB8\DEBUG\BOOKCATALOG.OBJ|C:\USERS\ALIM\DESKTOP\УНИВЕР\2 КУРС\ООП\CODE\LAB8\DEBUG\BOOKCATALOGITEM.OBJ|C:\USERS\ALIM\DESKTOP\УНИВЕР\2 КУРС\ООП\CODE\LAB8\DEBUG\MAIN.OBJ
C:\USERS\ALIM\DESKTOP\Универ\2 курс\ООП\CODE\LAB8\DEBUG\LAB8.ILK
C:\USERS\ALIM\DESKTOP\Универ\2 курс\ООП\CODE\LAB8\DEBUG\LAB8.EXE
C:\USERS\ALIM\DESKTOP\УНИВЕР\2 КУРС\ООП\CODE\LAB8\DEBUG\LAB8.PDB
