^C:\USERS\ALIM\DESKTOP\УНИВЕР\2 КУРС\ООП\CODE\LAB2\LAB2\BASEMATRIX.CPP
/c /ZI /JMC /nologo /W3 /WX- /diagnostics:column /sdl /Od /Oy- /D WIN32 /D _DEBUG /D _CONSOLE /D _UNICODE /D UNICODE /Gm- /EHsc /RTC1 /MDd /GS /fp:precise /permissive- /Zc:wchar_t /Zc:forScope /Zc:inline /Fo"DEBUG\\" /Fd"DEBUG\VC142.PDB" /external:W3 /Gd /TP /analyze- /FC C:\USERS\ALIM\DESKTOP\УНИВЕР\2 КУРС\ООП\CODE\LAB2\LAB2\BASEMATRIX.CPP
^C:\USERS\ALIM\DESKTOP\УНИВЕР\2 КУРС\ООП\CODE\LAB2\LAB2\CHARMATRIX.CPP
/c /ZI /JMC /nologo /W3 /WX- /diagnostics:column /sdl /Od /Oy- /D WIN32 /D _DEBUG /D _CONSOLE /D _UNICODE /D UNICODE /Gm- /EHsc /RTC1 /MDd /GS /fp:precise /permissive- /Zc:wchar_t /Zc:forScope /Zc:inline /Fo"DEBUG\\" /Fd"DEBUG\VC142.PDB" /external:W3 /Gd /TP /analyze- /FC C:\USERS\ALIM\DESKTOP\УНИВЕР\2 КУРС\ООП\CODE\LAB2\LAB2\CHARMATRIX.CPP
^C:\USERS\ALIM\DESKTOP\УНИВЕР\2 КУРС\ООП\CODE\LAB2\LAB2\INTEGERMATRIX.CPP
/c /ZI /JMC /nologo /W3 /WX- /diagnostics:column /sdl /Od /Oy- /D WIN32 /D _DEBUG /D _CONSOLE /D _UNICODE /D UNICODE /Gm- /EHsc /RTC1 /MDd /GS /fp:precise /permissive- /Zc:wchar_t /Zc:forScope /Zc:inline /Fo"DEBUG\\" /Fd"DEBUG\VC142.PDB" /external:W3 /Gd /TP /analyze- /FC C:\USERS\ALIM\DESKTOP\УНИВЕР\2 КУРС\ООП\CODE\LAB2\LAB2\INTEGERMATRIX.CPP
^C:\USERS\ALIM\DESKTOP\УНИВЕР\2 КУРС\ООП\CODE\LAB2\LAB2\DOUBLEMATRIX.CPP
/c /ZI /JMC /nologo /W3 /WX- /diagnostics:column /sdl /Od /Oy- /D WIN32 /D _DEBUG /D _CONSOLE /D _UNICODE /D UNICODE /Gm- /EHsc /RTC1 /MDd /GS /fp:precise /permissive- /Zc:wchar_t /Zc:forScope /Zc:inline /Fo"DEBUG\\" /Fd"DEBUG\VC142.PDB" /external:W3 /Gd /TP /analyze- /FC C:\USERS\ALIM\DESKTOP\УНИВЕР\2 КУРС\ООП\CODE\LAB2\LAB2\DOUBLEMATRIX.CPP
^C:\USERS\ALIM\DESKTOP\УНИВЕР\2 КУРС\ООП\CODE\LAB2\LAB2\MAIN.CPP
/c /ZI /JMC /nologo /W3 /WX- /diagnostics:column /sdl /Od /Oy- /D WIN32 /D _DEBUG /D _CONSOLE /D _UNICODE /D UNICODE /Gm- /EHsc /RTC1 /MDd /GS /fp:precise /permissive- /Zc:wchar_t /Zc:forScope /Zc:inline /Fo"DEBUG\\" /Fd"DEBUG\VC142.PDB" /external:W3 /Gd /TP /analyze- /FC C:\USERS\ALIM\DESKTOP\УНИВЕР\2 КУРС\ООП\CODE\LAB2\LAB2\MAIN.CPP
