^C:\USERS\ALIM\DESKTOP\УНИВЕР\2 КУРС\ООП\CODE\LAB2\LAB2\DEBUG\BASEMATRIX.OBJ|C:\USERS\ALIM\DESKTOP\УНИВЕР\2 КУРС\ООП\CODE\LAB2\LAB2\DEBUG\CHARMATRIX.OBJ|C:\USERS\ALIM\DESKTOP\УНИВЕР\2 КУРС\ООП\CODE\LAB2\LAB2\DEBUG\DOUBLEMATRIX.OBJ|C:\USERS\ALIM\DESKTOP\УНИВЕР\2 КУРС\ООП\CODE\LAB2\LAB2\DEBUG\INTEGERMATRIX.OBJ|C:\USERS\ALIM\DESKTOP\УНИВЕР\2 КУРС\ООП\CODE\LAB2\LAB2\DEBUG\MAIN.OBJ
C:\USERS\ALIM\DESKTOP\Универ\2 курс\ООП\CODE\LAB2\DEBUG\LAB2.EXE
C:\USERS\ALIM\DESKTOP\Универ\2 курс\ООП\CODE\LAB2\LAB2\DEBUG\LAB2.ILK
C:\USERS\ALIM\DESKTOP\УНИВЕР\2 КУРС\ООП\CODE\LAB2\DEBUG\LAB2.PDB
